{
  "student-01": {
    "name": "Lawrence Arden"
  },
  "student-02": {
    "name": "Alecia Barndell"
  },
  "student-03": {
    "name": "Dartanian Miller"
  },
  "student-04": {
    "name": "Jessica Wilternack"
  },
  "student-05": {
    "name": "Harriet Ingersol"
  },
  "student-06": {
    "name": "Michael McDormet"
  },
  "student-07": {
    "name": "Sherry Dillar"
  },
  "student-08": {
    "name": "Jack Andrews"
  },
  "student-09": {
    "name": "Allison Sharp"
  },
  "student-10": {
    "name": "Yancey Fry"
  }
}
